EESchema Schematic File Version 4
EELAYER 30 0
EELAYER END
$Descr A3 16535 11693
encoding utf-8
Sheet 1 1
Title ""
Date ""
Rev ""
Comp ""
Comment1 ""
Comment2 ""
Comment3 ""
Comment4 ""
$EndDescr
$Comp
L circuit-board-rescue:MCP23017 U1
U 1 1 5AC0FEF8
P 9400 2250
F 0 "U1" H 9300 3275 50  0000 R CNN
F 1 "MCP23017" H 9300 3200 50  0000 R CNN
F 2 "Housings_DIP:DIP-28_W7.62mm" H 9450 1300 50  0001 L CNN
F 3 "" H 9650 3250 50  0001 C CNN
	1    9400 2250
	-1   0    0    1   
$EndComp
$Comp
L circuit-board-rescue:MCP23017 U2
U 1 1 5AC10031
P 9400 4550
F 0 "U2" H 9300 5575 50  0000 R CNN
F 1 "MCP23017" H 9300 5500 50  0000 R CNN
F 2 "Housings_DIP:DIP-28_W7.62mm" H 9450 3600 50  0001 L CNN
F 3 "" H 9650 5550 50  0001 C CNN
	1    9400 4550
	-1   0    0    1   
$EndComp
$Comp
L circuit-board-rescue:CONN_01X18 J3
U 1 1 5AC10399
P 11900 2200
F 0 "J3" H 11900 3150 50  0000 C CNN
F 1 "CONN_01X18" V 12000 2200 50  0000 C CNN
F 2 "Pin_Headers:Pin_Header_Straight_1x18_Pitch2.54mm" H 11900 2200 50  0001 C CNN
F 3 "" H 11900 2200 50  0001 C CNN
	1    11900 2200
	1    0    0    -1  
$EndComp
$Comp
L circuit-board-rescue:CONN_01X20 J5
U 1 1 5AC10ABB
P 11900 7000
F 0 "J5" H 11900 8050 50  0000 C CNN
F 1 "CONN_01X20" V 12000 7000 50  0000 C CNN
F 2 "Pin_Headers:Pin_Header_Straight_1x20_Pitch2.54mm" H 11900 7000 50  0001 C CNN
F 3 "" H 11900 7000 50  0001 C CNN
	1    11900 7000
	1    0    0    -1  
$EndComp
$Comp
L circuit-board-rescue:CONN_01X11 J4
U 1 1 5AC1106A
P 11000 4250
F 0 "J4" H 11000 4850 50  0000 C CNN
F 1 "CONN_01X11" V 11100 4250 50  0000 C CNN
F 2 "Pin_Headers:Pin_Header_Straight_1x11_Pitch2.54mm" H 11000 4250 50  0001 C CNN
F 3 "" H 11000 4250 50  0001 C CNN
	1    11000 4250
	1    0    0    -1  
$EndComp
$Comp
L max:MAX7219 U3
U 1 1 5AC11260
P 9400 7000
F 0 "U3" H 9400 6300 60  0000 C CNN
F 1 "MAX7219" H 9400 7700 60  0000 C CNN
F 2 "Housings_DIP:DIP-24_W7.62mm" H 10000 7000 60  0001 C CNN
F 3 "" H 10000 7000 60  0000 C CNN
	1    9400 7000
	1    0    0    -1  
$EndComp
Text Notes 11900 5900 0    60   ~ 0
PUSHBUTTON LEDS\n1-, 1+, 2-, 2+, etc
Text Notes 11000 3600 0    60   ~ 0
PUSHBUTTON SW\n1, 2, 3, ..., COMM
Text Notes 11900 1200 0    60   ~ 0
RGB CHAR LCD
$Comp
L circuit-board-rescue:GND-power #PWR9
U 1 1 5AC12541
P 9700 3450
F 0 "#PWR9" H 9700 3200 50  0001 C CNN
F 1 "GND" H 9700 3300 50  0000 C CNN
F 2 "" H 9700 3450 50  0001 C CNN
F 3 "" H 9700 3450 50  0001 C CNN
	1    9700 3450
	1    0    0    -1  
$EndComp
$Comp
L circuit-board-rescue:GND-power #PWR8
U 1 1 5AC125D1
P 9700 1150
F 0 "#PWR8" H 9700 900 50  0001 C CNN
F 1 "GND" H 9700 1000 50  0000 C CNN
F 2 "" H 9700 1150 50  0001 C CNN
F 3 "" H 9700 1150 50  0001 C CNN
	1    9700 1150
	1    0    0    -1  
$EndComp
$Comp
L circuit-board-rescue:GND-power #PWR7
U 1 1 5AC12651
P 8700 7950
F 0 "#PWR7" H 8700 7700 50  0001 C CNN
F 1 "GND" H 8700 7800 50  0000 C CNN
F 2 "" H 8700 7950 50  0001 C CNN
F 3 "" H 8700 7950 50  0001 C CNN
	1    8700 7950
	1    0    0    -1  
$EndComp
$Comp
L circuit-board-rescue:+3.3V-power #PWR12
U 1 1 5AC12793
P 10200 6150
F 0 "#PWR12" H 10200 6000 50  0001 C CNN
F 1 "+3.3V" H 10200 6290 50  0000 C CNN
F 2 "" H 10200 6150 50  0001 C CNN
F 3 "" H 10200 6150 50  0001 C CNN
	1    10200 6150
	1    0    0    -1  
$EndComp
$Comp
L circuit-board-rescue:+3.3V-power #PWR11
U 1 1 5AC127FE
P 10200 5750
F 0 "#PWR11" H 10200 5600 50  0001 C CNN
F 1 "+3.3V" H 10200 5890 50  0000 C CNN
F 2 "" H 10200 5750 50  0001 C CNN
F 3 "" H 10200 5750 50  0001 C CNN
	1    10200 5750
	1    0    0    -1  
$EndComp
$Comp
L circuit-board-rescue:+5V-power #PWR10
U 1 1 5AC12863
P 10200 3350
F 0 "#PWR10" H 10200 3200 50  0001 C CNN
F 1 "+5V" H 10200 3490 50  0000 C CNN
F 2 "" H 10200 3350 50  0001 C CNN
F 3 "" H 10200 3350 50  0001 C CNN
	1    10200 3350
	1    0    0    -1  
$EndComp
$Comp
L circuit-board-rescue:GND-power #PWR4
U 1 1 5AC12D3D
P 8300 1750
F 0 "#PWR4" H 8300 1500 50  0001 C CNN
F 1 "GND" H 8300 1600 50  0000 C CNN
F 2 "" H 8300 1750 50  0001 C CNN
F 3 "" H 8300 1750 50  0001 C CNN
	1    8300 1750
	1    0    0    -1  
$EndComp
Text Notes 8850 1750 2    60   ~ 0
0x20
Text Notes 8350 1050 0    60   ~ 0
RGB CHAR LCD RUNS ON +5V
Text Notes 8350 5900 0    60   ~ 0
PUSH BUTTONS RUNS ON +3.3V
Text Notes 8350 6150 0    60   ~ 0
PUSH BUTTON LEDS RUNS ON +3.3V
$Comp
L circuit-board-rescue:R R1
U 1 1 5AC13DC1
P 10300 6300
F 0 "R1" V 10380 6300 50  0000 C CNN
F 1 "10K" V 10300 6300 50  0000 C CNN
F 2 "Resistors_THT:R_Axial_DIN0204_L3.6mm_D1.6mm_P2.54mm_Vertical" V 10230 6300 50  0001 C CNN
F 3 "" H 10300 6300 50  0001 C CNN
	1    10300 6300
	1    0    0    -1  
$EndComp
$Comp
L circuit-board-rescue:GND-power #PWR13
U 1 1 5AC1416C
P 10700 4850
F 0 "#PWR13" H 10700 4600 50  0001 C CNN
F 1 "GND" H 10700 4700 50  0000 C CNN
F 2 "" H 10700 4850 50  0001 C CNN
F 3 "" H 10700 4850 50  0001 C CNN
	1    10700 4850
	1    0    0    -1  
$EndComp
$Comp
L circuit-board-rescue:GND-power #PWR5
U 1 1 5AC150BE
P 8500 3950
F 0 "#PWR5" H 8500 3700 50  0001 C CNN
F 1 "GND" H 8500 3800 50  0000 C CNN
F 2 "" H 8500 3950 50  0001 C CNN
F 3 "" H 8500 3950 50  0001 C CNN
	1    8500 3950
	1    0    0    -1  
$EndComp
$Comp
L circuit-board-rescue:+3.3V-power #PWR6
U 1 1 5AC152D4
P 8700 3650
F 0 "#PWR6" H 8700 3500 50  0001 C CNN
F 1 "+3.3V" H 8700 3790 50  0000 C CNN
F 2 "" H 8700 3650 50  0001 C CNN
F 3 "" H 8700 3650 50  0001 C CNN
	1    8700 3650
	1    0    0    -1  
$EndComp
Text Notes 8850 4050 2    60   ~ 0
0x21
$Comp
L circuit-board-rescue:+5V-power #PWR15
U 1 1 5AC15558
P 11600 1150
F 0 "#PWR15" H 11600 1000 50  0001 C CNN
F 1 "+5V" H 11600 1290 50  0000 C CNN
F 2 "" H 11600 1150 50  0001 C CNN
F 3 "" H 11600 1150 50  0001 C CNN
	1    11600 1150
	1    0    0    -1  
$EndComp
$Comp
L circuit-board-rescue:GND-power #PWR14
U 1 1 5AC15581
P 11500 3150
F 0 "#PWR14" H 11500 2900 50  0001 C CNN
F 1 "GND" H 11500 3000 50  0000 C CNN
F 2 "" H 11500 3150 50  0001 C CNN
F 3 "" H 11500 3150 50  0001 C CNN
	1    11500 3150
	1    0    0    -1  
$EndComp
$Comp
L circuit-board-rescue:R R4
U 1 1 5AC155A2
P 11150 3050
F 0 "R4" V 11100 3250 50  0000 C CNN
F 1 "320R" V 11150 3050 50  0000 C CNN
F 2 "Resistors_THT:R_Axial_DIN0204_L3.6mm_D1.6mm_P2.54mm_Vertical" V 11080 3050 50  0001 C CNN
F 3 "" H 11150 3050 50  0001 C CNN
	1    11150 3050
	0    1    1    0   
$EndComp
$Comp
L circuit-board-rescue:R R3
U 1 1 5AC155FF
P 11150 2950
F 0 "R3" V 11100 3150 50  0000 C CNN
F 1 "220R" V 11150 2950 50  0000 C CNN
F 2 "Resistors_THT:R_Axial_DIN0204_L3.6mm_D1.6mm_P2.54mm_Vertical" V 11080 2950 50  0001 C CNN
F 3 "" H 11150 2950 50  0001 C CNN
	1    11150 2950
	0    1    1    0   
$EndComp
$Comp
L circuit-board-rescue:R R2
U 1 1 5AC1564E
P 11150 2850
F 0 "R2" V 11100 3050 50  0000 C CNN
F 1 "220R" V 11150 2850 50  0000 C CNN
F 2 "Resistors_THT:R_Axial_DIN0204_L3.6mm_D1.6mm_P2.54mm_Vertical" V 11080 2850 50  0001 C CNN
F 3 "" H 11150 2850 50  0001 C CNN
	1    11150 2850
	0    1    1    0   
$EndComp
Text Notes 12050 1400 0    60   ~ 0
GND
Text Notes 12050 1500 0    60   ~ 0
+5V
Text Notes 12050 1600 0    60   ~ 0
CONTRAST
Text Notes 12050 1700 0    60   ~ 0
RS
Text Notes 12050 1800 0    60   ~ 0
RW
Text Notes 12050 1900 0    60   ~ 0
EN
Text Notes 12050 2400 0    60   ~ 0
DB4
Text Notes 12050 2500 0    60   ~ 0
DB5
Text Notes 12050 2600 0    60   ~ 0
DB6
Text Notes 12050 2700 0    60   ~ 0
DB7
Text Notes 12050 2800 0    60   ~ 0
+5V
Text Notes 12050 2900 0    60   ~ 0
LED RED
Text Notes 12050 3000 0    60   ~ 0
LED GREEN
Text Notes 12050 3100 0    60   ~ 0
LED BLUE
Text Notes 12050 2300 0    60   ~ 0
DB3
Text Notes 12050 2200 0    60   ~ 0
DB2
Text Notes 12050 2100 0    60   ~ 0
DB1
Text Notes 12050 2000 0    60   ~ 0
DB0
$Comp
L circuit-board-rescue:POT RV1
U 1 1 5AC16C3C
P 11050 1150
F 0 "RV1" V 10875 1150 50  0000 C CNN
F 1 "10K" V 10950 1150 50  0000 C CNN
F 2 "Potentiometers:Potentiometer_Trimmer_ACP_CA6v_Horizontal" H 11050 1150 50  0001 C CNN
F 3 "" H 11050 1150 50  0001 C CNN
	1    11050 1150
	0    1    1    0   
$EndComp
$Comp
L circuit-board-rescue:Conn_01x15 J6
U 1 1 5AC54872
P 6850 4450
F 0 "J6" H 6850 5250 50  0000 C CNN
F 1 "RPI_Periph" H 6850 3650 50  0000 C CNN
F 2 "Pin_Headers:Pin_Header_Straight_1x15_Pitch2.54mm" H 6850 4450 50  0001 C CNN
F 3 "" H 6850 4450 50  0001 C CNN
	1    6850 4450
	-1   0    0    -1  
$EndComp
$Comp
L circuit-board-rescue:Conn_01x15 J1
U 1 1 5AC54AAD
P 6300 4450
F 0 "J1" H 6300 5250 50  0000 C CNN
F 1 "RPI_CPU" H 6300 3650 50  0000 C CNN
F 2 "Pin_Headers:Pin_Header_Straight_1x15_Pitch2.54mm" H 6300 4450 50  0001 C CNN
F 3 "" H 6300 4450 50  0001 C CNN
	1    6300 4450
	1    0    0    -1  
$EndComp
$Comp
L circuit-board-rescue:+5V-power #PWR3
U 1 1 5AC54E40
P 7450 3650
F 0 "#PWR3" H 7450 3500 50  0001 C CNN
F 1 "+5V" H 7450 3790 50  0000 C CNN
F 2 "" H 7450 3650 50  0001 C CNN
F 3 "" H 7450 3650 50  0001 C CNN
	1    7450 3650
	1    0    0    -1  
$EndComp
$Comp
L circuit-board-rescue:+3.3V-power #PWR1
U 1 1 5AC54EAF
P 7150 3650
F 0 "#PWR1" H 7150 3500 50  0001 C CNN
F 1 "+3.3V" H 7150 3790 50  0000 C CNN
F 2 "" H 7150 3650 50  0001 C CNN
F 3 "" H 7150 3650 50  0001 C CNN
	1    7150 3650
	1    0    0    -1  
$EndComp
$Comp
L circuit-board-rescue:GND-power #PWR2
U 1 1 5AC550C3
P 7150 5250
F 0 "#PWR2" H 7150 5000 50  0001 C CNN
F 1 "GND" H 7150 5100 50  0000 C CNN
F 2 "" H 7150 5250 50  0001 C CNN
F 3 "" H 7150 5250 50  0001 C CNN
	1    7150 5250
	1    0    0    -1  
$EndComp
$Comp
L circuit-board-rescue:Raspberry_Pi_2_3 RPI1
U 1 1 5AC553BD
P 3700 4450
F 0 "RPI1" H 4400 3200 50  0000 C CNN
F 1 "RPI1" H 3300 5350 50  0000 C CNN
F 2 "Socket_Strips:Socket_Strip_Straight_2x20_Pitch2.54mm" H 4700 5700 50  0001 C CNN
F 3 "" H 3750 4300 50  0001 C CNN
	1    3700 4450
	1    0    0    -1  
$EndComp
Wire Wire Line
	8400 4150 8900 4150
Wire Wire Line
	8400 1850 8900 1850
Wire Wire Line
	8300 1950 8300 4050
Wire Wire Line
	8300 4250 8900 4250
Wire Wire Line
	8300 1950 8900 1950
Wire Wire Line
	9400 3450 9700 3450
Wire Wire Line
	9400 1250 9400 1150
Wire Wire Line
	9400 1150 9700 1150
Wire Wire Line
	10000 6950 10200 6950
Wire Wire Line
	10200 6950 10200 6150
Wire Wire Line
	9400 5550 9400 5750
Wire Wire Line
	8900 5750 9400 5750
Wire Wire Line
	9400 3250 9400 3350
Wire Wire Line
	8900 3350 9400 3350
Wire Wire Line
	8800 7250 8700 7250
Wire Wire Line
	8700 6750 8700 7250
Wire Wire Line
	8800 6750 8700 6750
Connection ~ 8700 7250
Wire Wire Line
	8900 1650 8300 1650
Wire Wire Line
	8300 1450 8300 1550
Wire Wire Line
	8900 1550 8300 1550
Connection ~ 8300 1650
Wire Wire Line
	8900 1450 8300 1450
Connection ~ 8300 1550
Wire Wire Line
	8900 3050 8900 3350
Connection ~ 9400 3350
Wire Wire Line
	8900 5350 8900 5750
Connection ~ 9400 5750
Wire Wire Line
	8800 6550 8700 6550
Wire Wire Line
	8700 6550 8700 6250
Wire Wire Line
	8700 6250 11300 6250
Wire Wire Line
	11300 6050 11300 6250
Wire Wire Line
	11300 6050 11700 6050
Connection ~ 11300 6250
Wire Wire Line
	11300 6450 11700 6450
Wire Wire Line
	11300 6650 11700 6650
Connection ~ 11300 6450
Wire Wire Line
	11300 6850 11700 6850
Connection ~ 11300 6650
Wire Wire Line
	11300 7050 11700 7050
Connection ~ 11300 6850
Wire Wire Line
	11300 7250 11700 7250
Connection ~ 11300 7050
Wire Wire Line
	11300 7450 11700 7450
Connection ~ 11300 7250
Wire Wire Line
	11700 7850 11500 7850
Wire Wire Line
	8600 7850 8600 7450
Wire Wire Line
	8600 7450 8800 7450
Wire Wire Line
	11700 7650 11300 7650
Wire Wire Line
	11300 7650 11300 7850
Connection ~ 11300 7850
Wire Wire Line
	10000 7450 11100 7450
Wire Wire Line
	11100 6150 11100 7450
Wire Wire Line
	11100 6150 11700 6150
Wire Wire Line
	10000 7250 11200 7250
Wire Wire Line
	11200 6350 11200 7250
Wire Wire Line
	11200 6350 11700 6350
Wire Wire Line
	11000 6850 10000 6850
Wire Wire Line
	11000 5300 11000 6550
Wire Wire Line
	11000 6550 11700 6550
Wire Wire Line
	10000 6550 10900 6550
Wire Wire Line
	10900 5400 10900 6550
Wire Wire Line
	10900 6750 11700 6750
Wire Wire Line
	10000 6750 10800 6750
Wire Wire Line
	10800 6750 10800 6950
Wire Wire Line
	10800 6950 11700 6950
Wire Wire Line
	10000 7350 11000 7350
Wire Wire Line
	11000 7150 11700 7150
Wire Wire Line
	10900 7300 11600 7300
Wire Wire Line
	11600 7300 11600 7350
Wire Wire Line
	11600 7350 11700 7350
Wire Wire Line
	10000 6650 10700 6650
Wire Wire Line
	10700 6650 10700 7550
Wire Wire Line
	10700 7550 11700 7550
Wire Wire Line
	11100 7750 11700 7750
Connection ~ 11100 7450
Wire Wire Line
	11200 7950 11700 7950
Connection ~ 11200 7250
Wire Wire Line
	10200 6150 10300 6150
Wire Wire Line
	10300 6450 10300 7050
Wire Wire Line
	10300 7050 10000 7050
Wire Wire Line
	10500 5350 10500 4550
Wire Wire Line
	10600 5250 10600 4650
Wire Wire Line
	8500 3950 8500 3850
Wire Wire Line
	8500 3750 8900 3750
Wire Wire Line
	8900 3850 8500 3850
Connection ~ 8500 3850
Wire Wire Line
	8900 3950 8700 3950
Wire Wire Line
	8700 3950 8700 3650
Wire Wire Line
	11700 1350 11500 1350
Wire Wire Line
	11500 1350 11500 1750
Wire Wire Line
	11700 1450 11600 1450
Wire Wire Line
	11600 1150 11600 1450
Wire Wire Line
	11600 2750 11700 2750
Connection ~ 11600 1450
Wire Wire Line
	11300 2850 11700 2850
Wire Wire Line
	11300 2950 11700 2950
Wire Wire Line
	11300 3050 11700 3050
Wire Wire Line
	11200 1150 11600 1150
Wire Wire Line
	10900 1150 10800 1150
Wire Wire Line
	10800 1150 10800 3150
Wire Wire Line
	10800 3150 11500 3150
Wire Wire Line
	11050 1300 11050 1550
Wire Wire Line
	11050 1550 11700 1550
Wire Wire Line
	11000 2950 10700 2950
Wire Wire Line
	10700 2950 10700 1450
Wire Wire Line
	11000 2850 10600 2850
Wire Wire Line
	10600 2850 10600 1550
Wire Wire Line
	11700 1750 11500 1750
Connection ~ 11500 1750
Wire Wire Line
	11700 1650 10500 1650
Wire Wire Line
	10500 1650 10500 2150
Wire Wire Line
	11700 1850 10400 1850
Wire Wire Line
	10400 1850 10400 2050
Wire Wire Line
	11700 2650 10000 2650
Wire Wire Line
	10000 2650 10000 1650
Wire Wire Line
	11700 2550 10100 2550
Wire Wire Line
	10100 2550 10100 1750
Wire Wire Line
	11700 2450 10200 2450
Wire Wire Line
	10200 2450 10200 1850
Wire Wire Line
	11700 2350 10300 2350
Wire Wire Line
	10300 2350 10300 1950
Wire Wire Line
	11000 7350 11000 7150
Wire Wire Line
	10900 7150 10900 7300
Wire Wire Line
	10000 7150 10900 7150
Wire Wire Line
	9400 3450 9400 3550
Wire Wire Line
	7050 3750 7150 3750
Wire Wire Line
	7150 3750 7150 3650
Wire Wire Line
	7050 3850 7450 3850
Wire Wire Line
	7450 3850 7450 3650
Wire Wire Line
	7050 5150 7150 5150
Wire Wire Line
	7150 5150 7150 5250
Wire Wire Line
	3800 3150 3800 3050
Wire Wire Line
	3800 3050 6000 3050
Wire Wire Line
	6000 3050 6000 3750
Wire Wire Line
	6000 3750 6100 3750
Wire Wire Line
	3500 3150 3500 2950
Wire Wire Line
	3500 2950 5900 2950
Wire Wire Line
	5900 2950 5900 3850
Wire Wire Line
	5900 3850 6100 3850
Wire Wire Line
	4600 3550 5800 3550
Wire Wire Line
	5800 3550 5800 3950
Wire Wire Line
	5800 3950 6100 3950
Wire Wire Line
	4600 3650 5700 3650
Wire Wire Line
	5700 3650 5700 4050
Wire Wire Line
	5700 4050 6100 4050
Wire Wire Line
	2800 3850 2700 3850
Wire Wire Line
	2700 3850 2700 2850
Wire Wire Line
	2700 2850 5600 2850
Wire Wire Line
	5600 2850 5600 4150
Wire Wire Line
	5600 4150 6100 4150
Wire Wire Line
	2800 4850 2600 4850
Wire Wire Line
	2600 4850 2600 2750
Wire Wire Line
	2600 2750 5500 2750
Wire Wire Line
	5500 2750 5500 4250
Wire Wire Line
	5500 4250 6100 4250
Wire Wire Line
	2800 4350 2500 4350
Wire Wire Line
	2500 4350 2500 2650
Wire Wire Line
	2500 2650 5400 2650
Wire Wire Line
	5400 2650 5400 4350
Wire Wire Line
	5400 4350 6100 4350
Wire Wire Line
	4600 3950 5300 3950
Wire Wire Line
	5300 3950 5300 4450
Wire Wire Line
	5300 4450 6100 4450
Wire Wire Line
	4600 4050 5200 4050
Wire Wire Line
	5200 4050 5200 4550
Wire Wire Line
	5200 4550 6100 4550
Wire Wire Line
	2800 4750 2400 4750
Wire Wire Line
	2400 4750 2400 2550
Wire Wire Line
	2400 2550 5100 2550
Wire Wire Line
	5100 2550 5100 4650
Wire Wire Line
	5100 4650 6100 4650
Wire Wire Line
	2800 3750 2300 3750
Wire Wire Line
	2300 3750 2300 2450
Wire Wire Line
	2300 2450 5000 2450
Wire Wire Line
	5000 2450 5000 4750
Wire Wire Line
	5000 4750 6100 4750
Wire Wire Line
	4600 4350 4900 4350
Wire Wire Line
	4900 4350 4900 4850
Wire Wire Line
	4900 4850 6100 4850
Wire Wire Line
	4600 4550 4800 4550
Wire Wire Line
	4800 4550 4800 4950
Wire Wire Line
	4800 4950 6100 4950
Wire Wire Line
	4600 4650 4700 4650
Wire Wire Line
	4700 4650 4700 5050
Wire Wire Line
	4700 5050 6100 5050
Wire Wire Line
	3300 5750 3300 5850
Wire Wire Line
	3300 5850 6000 5850
Wire Wire Line
	6000 5850 6000 5150
Wire Wire Line
	6000 5150 6100 5150
Text Notes 6450 3800 0    60   ~ 0
+3.3V
Text Notes 6450 3900 0    60   ~ 0
+5V
Text Notes 6450 4000 0    60   ~ 0
SDA
Text Notes 6450 4100 0    60   ~ 0
SCL
Text Notes 6450 4600 0    60   ~ 0
C0
Text Notes 6450 4700 0    60   ~ 0
C1
Text Notes 6450 4800 0    60   ~ 0
C2
Text Notes 6450 4900 0    60   ~ 0
CE0
Text Notes 6450 5000 0    60   ~ 0
MOSI
Text Notes 6450 5100 0    60   ~ 0
CLK
Text Notes 6450 5200 0    60   ~ 0
GND
Wire Wire Line
	8400 1850 8400 3950
Wire Wire Line
	7050 3950 8400 3950
Connection ~ 8400 3950
Wire Wire Line
	7050 4050 8300 4050
Connection ~ 8300 4050
Wire Wire Line
	7050 4850 8300 4850
Wire Wire Line
	8300 4850 8300 7550
Wire Wire Line
	8300 7550 8800 7550
Wire Wire Line
	7050 4950 8200 4950
Wire Wire Line
	8200 4950 8200 6450
Wire Wire Line
	8200 6450 8800 6450
Wire Wire Line
	7050 5050 8100 5050
Wire Wire Line
	8100 5050 8100 7750
Wire Wire Line
	8100 7750 10100 7750
Wire Wire Line
	10100 7750 10100 7550
Wire Wire Line
	10100 7550 10000 7550
Wire Wire Line
	10700 4850 10700 4750
Wire Wire Line
	10700 4750 10800 4750
Wire Wire Line
	10600 4650 10800 4650
Wire Wire Line
	10500 4550 10800 4550
Wire Wire Line
	9900 5250 10600 5250
Wire Wire Line
	9900 5350 10500 5350
Wire Wire Line
	10800 3750 10700 3750
Wire Wire Line
	10700 3750 10700 4450
Wire Wire Line
	10700 4450 9900 4450
Wire Wire Line
	10800 3850 10600 3850
Wire Wire Line
	10600 3850 10600 4350
Wire Wire Line
	10600 4350 9900 4350
Wire Wire Line
	10800 3950 10500 3950
Wire Wire Line
	10500 3950 10500 4250
Wire Wire Line
	10500 4250 9900 4250
Wire Wire Line
	10800 4050 10400 4050
Wire Wire Line
	10400 4050 10400 4150
Wire Wire Line
	10400 4150 9900 4150
Wire Wire Line
	10800 4150 10450 4150
Wire Wire Line
	10450 4150 10450 4000
Wire Wire Line
	10450 4000 10000 4000
Wire Wire Line
	10000 4000 10000 4050
Wire Wire Line
	10000 4050 9900 4050
Wire Wire Line
	10800 4250 10550 4250
Wire Wire Line
	10550 4250 10550 3900
Wire Wire Line
	10550 3900 10000 3900
Wire Wire Line
	10000 3900 10000 3950
Wire Wire Line
	10000 3950 9900 3950
Wire Wire Line
	10800 4350 10650 4350
Wire Wire Line
	10650 4350 10650 3800
Wire Wire Line
	10650 3800 10000 3800
Wire Wire Line
	10000 3800 10000 3850
Wire Wire Line
	10000 3850 9900 3850
Wire Wire Line
	10800 4450 10750 4450
Wire Wire Line
	10750 4450 10750 3700
Wire Wire Line
	10750 3700 10000 3700
Wire Wire Line
	10000 3700 10000 3750
Wire Wire Line
	10000 3750 9900 3750
Wire Wire Line
	10700 1450 9900 1450
Wire Wire Line
	10600 1550 9900 1550
Wire Wire Line
	9900 3050 11000 3050
Wire Wire Line
	10000 1650 9900 1650
Wire Wire Line
	10100 1750 9900 1750
Wire Wire Line
	10200 1850 9900 1850
Wire Wire Line
	10300 1950 9900 1950
Wire Wire Line
	10400 2050 9900 2050
Wire Wire Line
	10500 2150 9900 2150
$Comp
L circuit-board-rescue:CONN_01X07 J2
U 1 1 5AC102C2
P 12100 5100
F 0 "J2" H 12200 5400 50  0000 C CNN
F 1 "J2 1x7" V 12200 5100 50  0000 C CNN
F 2 "Pin_Headers:Pin_Header_Straight_1x07_Pitch2.54mm" H 12100 5100 50  0001 C CNN
F 3 "" H 12100 5100 50  0001 C CNN
	1    12100 5100
	1    0    0    -1  
$EndComp
Text Notes 12300 4850 0    60   ~ 0
ACTION BTN
Text Notes 12300 4950 0    60   ~ 0
ACTION BTN
Text Notes 13200 5250 0    60   ~ 0
RGB LED COMMON CATHODE
Text Notes 12300 5150 0    60   ~ 0
ACTION LED GRN +
Text Notes 12300 5250 0    60   ~ 0
ACTION LED -
Text Notes 12300 5350 0    60   ~ 0
ACTION LED RED +
$Comp
L circuit-board-rescue:GND-power #PWR?
U 1 1 5ADDC29E
P 11550 5000
F 0 "#PWR?" H 11550 4750 50  0001 C CNN
F 1 "GND" H 11550 4850 50  0000 C CNN
F 2 "" H 11550 5000 50  0001 C CNN
F 3 "" H 11550 5000 50  0001 C CNN
	1    11550 5000
	1    0    0    -1  
$EndComp
Wire Wire Line
	11550 4900 11900 4900
Wire Wire Line
	11900 4800 11450 4800
Wire Wire Line
	11450 4800 11450 5150
Wire Wire Line
	11450 5150 9900 5150
Wire Wire Line
	11500 7850 11500 5200
Wire Wire Line
	11500 5200 11900 5200
Connection ~ 11500 7850
Wire Wire Line
	11000 5300 11750 5300
Wire Wire Line
	11750 5300 11750 5100
Wire Wire Line
	11750 5100 11900 5100
Connection ~ 11000 6550
Wire Wire Line
	10900 5400 11850 5400
Connection ~ 10900 6550
Wire Wire Line
	11550 4900 11550 5000
Wire Wire Line
	11850 5400 11850 5300
Wire Wire Line
	11850 5300 11900 5300
Text Notes 6450 4200 0    60   ~ 0
INT
Wire Wire Line
	8900 4850 8400 4850
Wire Wire Line
	8400 4850 8400 4350
Wire Wire Line
	8400 4350 8200 4350
Wire Wire Line
	8200 4350 8200 4150
Wire Wire Line
	8200 4150 7050 4150
Wire Wire Line
	8700 7250 8700 7950
Wire Wire Line
	8300 1650 8300 1750
Wire Wire Line
	8300 1550 8300 1650
Wire Wire Line
	9400 3350 10200 3350
Wire Wire Line
	9400 5750 10200 5750
Wire Wire Line
	11300 6250 11700 6250
Wire Wire Line
	11300 6250 11300 6450
Wire Wire Line
	11300 6450 11300 6650
Wire Wire Line
	11300 6650 11300 6850
Wire Wire Line
	11300 6850 11300 7050
Wire Wire Line
	11300 7050 11300 7250
Wire Wire Line
	11300 7250 11300 7450
Wire Wire Line
	11300 7850 8600 7850
Wire Wire Line
	11100 7450 11100 7750
Wire Wire Line
	11200 7250 11200 7950
Wire Wire Line
	8500 3850 8500 3750
Wire Wire Line
	11600 1450 11600 2750
Wire Wire Line
	11500 1750 11500 3150
Wire Wire Line
	8400 3950 8400 4150
Wire Wire Line
	8300 4050 8300 4250
Wire Wire Line
	11500 7850 11300 7850
Wire Wire Line
	11000 6550 11000 6850
Wire Wire Line
	10900 6550 10900 6750
$EndSCHEMATC
